C:\Users\Administrator\Documents\TrainingRepos\SpringInvestor\src\test\java\com\citi\trading\pricing\PricingIntegrationTest.java
C:\Users\Administrator\Documents\TrainingRepos\SpringInvestor\src\test\java\com\citi\trading\pricing\PriceDataTest.java
C:\Users\Administrator\Documents\TrainingRepos\SpringInvestor\src\test\java\com\citi\trading\pricing\PricingTest.java
C:\Users\Administrator\Documents\TrainingRepos\SpringInvestor\src\test\java\com\citi\trading\InvestorTest.java
C:\Users\Administrator\Documents\TrainingRepos\SpringInvestor\src\test\java\com\citi\trading\BrokerServiceTest.java
